Landsat Kelp Area Time Series • KelpAreaIndicator
…
segmented_landsat_data <- segment_landsat_data(
  lter_file_path = lter_file_path,
  kelp_segments_file_path = kelp_segments_file_path
)
#> Reading layer `uswc_2023_v1' from data source 
#>   `/Users/nicholasl/Documents/Projects/kelp/KelpAreaIndicator/data/uswc_2023_v1' 
#>   using driver `ESRI Shapefile'
#> Simple feature collection with 360 features and 1 field
#> Geometry type: MULTIPOLYGON
#> Dimension:     XY
#> Bounding box:  xmin: -124.844 ymin: 32.50006 xmax: -117.1239 ymax: 48.42642
#> Geodetic CRS:  WGS 84

segmented_landsat_data
#> # A tibble: 368,087 × 162
#>    Segment_ID   lon   lat Q1.1984 Q2.1984 Q3.1984 Q4.1984 Q1.1985 Q2.1985
#>    <chr>      <dbl> <dbl>   <int>   <int>   <int>   <int>   <int>   <int>
#>  1 OR_21      -125.  42.8      NA       0      66      NA      NA       0
#>  2 OR_21      -125.  42.8      NA       0       0      NA      NA       0
#>  3 OR_21      -125.  42.8      NA       0       0      NA       0       0
#>  4 OR_21      -125.  42.8      NA       0     153      NA      NA       0
#>  5 OR_21      -125.  42.8      NA       0       0      NA       0       0
#>  6 OR_21      -125.  42.8      NA       0       0      NA       0       0
#>  7 OR_21      -125.  42.8      NA       0       0      NA       0       0
#>  8 OR_21      -125.  42.8      NA       0       0      NA       0       0
#>  9 OR_21      -125.  42.8      NA       0      60      NA       0       0
#> 10 OR_21      -125.  42.8      NA       0       0      NA       0       0
#> # ℹ 368,077 more rows
#> # ℹ 153 more variables: Q3.1985 <int>, Q4.1985 <int>, Q1.1986 <int>,
#> #   Q2.1986 <int>, Q3.1986 <int>, Q4.1986 <int>, Q1.1987 <int>,
#> #   Q2.1987 <int>, Q3.1987 <int>, Q4.1987 <int>, Q1.1988 <int>,
#> #   Q2.1988 <int>, Q3.1988 <int>, Q4.1988 <int>, Q1.1989 <int>,
#> #   Q2.1989 <int>, Q3.1989 <int>, Q4.1989 <int>, Q1.1990 <int>,
#> #   Q2.1990 <int>, Q3.1990 <int>, Q4.1990 <int>, Q1.1991 <int>, …
…
segmented_landsat_data_whole_pixels
#> # A tibble: 368,087 × 162
#>    Segment_ID   lon   lat Q1.1984 Q2.1984 Q3.1984 Q4.1984 Q1.1985 Q2.1985
#>    <chr>      <dbl> <dbl>   <dbl>   <dbl>   <dbl>   <dbl>   <dbl>   <dbl>
#>  1 OR_21      -125.  42.8      NA       0     900      NA      NA       0
#>  2 OR_21      -125.  42.8      NA       0       0      NA      NA       0
#>  3 OR_21      -125.  42.8      NA       0       0      NA       0       0
#>  4 OR_21      -125.  42.8      NA       0     900      NA      NA       0
#>  5 OR_21      -125.  42.8      NA       0       0      NA       0       0
#>  6 OR_21      -125.  42.8      NA       0       0      NA       0       0
#>  7 OR_21      -125.  42.8      NA       0       0      NA       0       0
#>  8 OR_21      -125.  42.8      NA       0       0      NA       0       0
#>  9 OR_21      -125.  42.8      NA       0     900      NA       0       0
#> 10 OR_21      -125.  42.8      NA       0       0      NA       0       0
#> # ℹ 368,077 more rows
#> # ℹ 153 more variables: Q3.1985 <dbl>, Q4.1985 <dbl>, Q1.1986 <dbl>,
#> #   Q2.1986 <dbl>, Q3.1986 <dbl>, Q4.1986 <dbl>, Q1.1987 <dbl>,
#> #   Q2.1987 <dbl>, Q3.1987 <dbl>, Q4.1987 <dbl>, Q1.1988 <dbl>,
#> #   Q2.1988 <dbl>, Q3.1988 <dbl>, Q4.1988 <dbl>, Q1.1989 <dbl>,
#> #   Q2.1989 <dbl>, Q3.1989 <dbl>, Q4.1989 <dbl>, Q1.1990 <dbl>,
#> #   Q2.1990 <dbl>, Q3.1990 <dbl>, Q4.1990 <dbl>, Q1.1991 <dbl>, …
…
“Ephemeral Kelp”: pixel_percent <= ephemeral_kelp_bound

“Kelp”: otherwise

kelp_presence <- get_kelp_presence(
  segmented_landsat_data = segmented_landsat_data,
  kelp_segments_file_path = kelp_segments_file_path,
  no_kelp_bound = 0.02,
  ephemeral_kelp_bound = 0.15
)

kelp_presence |> dplyr::arrange(Segment_ID)
#> # A tibble: 360 × 4
#>    Segment_ID segment_area pixel_percent presence          
#>    <chr>             <dbl>         <dbl> <chr>             
#>  1 CA_1               71.8       3.93    Kelp              
#>  2 CA_10              54.8       2.24    Kelp              
#>  3 CA_100             44.6       0.0887  Ephemeral Kelp    
#>  4 CA_101             72.7       0.00619 No Historical Kelp
#>  5 CA_102             16.3       0.00554 No Historical Kelp
#>  6 CA_103            102.       NA       No Historical Kelp
#>  7 CA_104             41.6      NA       No Historical Kelp
#>  8 CA_105            111.        0.00728 No Historical Kelp
#>  9 CA_106             69.2      NA       No Historical Kelp
#> 10 CA_107             42.5      NA       No Historical Kelp
#> # ℹ 350 more rows
…
area_hist: Kelp area relative to the historical median,
expressed as a percentage

area_pct: Kelp area relative to the maximum occupiable
kelp area, expressed as a percentage

quarterly_ts <- extract_time_series(
  segmented_landsat_data = segmented_landsat_data,
  frequency = "quarterly"
)

quarterly_ts
#> # A tibble: 57,240 × 9
#>    Segment_ID max_occupiable historical_med quarter  year date       area_abs
#>    <chr>               <dbl>          <dbl> <chr>   <dbl> <date>        <dbl>
#>  1 CA_1                0.800       0.000388 Q1       1984 1984-01-01 0       
#>  2 CA_1                0.800       0.000388 Q2       1984 1984-04-01 0.000543
#>  3 CA_1                0.800       0.000388 Q3       1984 1984-07-01 0       
#>  4 CA_1                0.800       0.000388 Q4       1984 1984-10-01 0       
#>  5 CA_1                0.800       0.000388 Q1       1985 1985-01-01 0       
#>  6 CA_1                0.800       0.000388 Q2       1985 1985-04-01 0.00300 
#>  7 CA_1                0.800       0.000388 Q3       1985 1985-07-01 0.00140 
#>  8 CA_1                0.800       0.000388 Q4       1985 1985-10-01 0       
#>  9 CA_1                0.800       0.000388 Q1       1986 1986-01-01 0.0340  
#> 10 CA_1                0.800       0.000388 Q2       1986 1986-04-01 0.00215 
#> # ℹ 57,230 more rows
#> # ℹ 2 more variables: area_hist <dbl>, area_pct <dbl>
…
The max_first annualization method will loop through all
Landsat pixels and for each year of the time series, it will select the
maximum value that that pixel attained in that year. Then, these maximum
values are added together for all pixels in each segment, so that the
resulting time series is annual for each kelp segment.

max_first_annual_ts <- extract_time_series(
  segmented_landsat_data = segmented_landsat_data,
  annualization_method = "max_first"
)

max_first_annual_ts
#> # A tibble: 14,400 × 8
#>    Segment_ID max_occupiable historical_med  year date       area_abs
#>    <chr>               <dbl>          <dbl> <dbl> <date>        <dbl>
#>  1 CA_1                0.800        0.00509  1984 1984-01-01 0.000543
#>  2 CA_1                0.800        0.00509  1985 1985-01-01 0.00434 
#>  3 CA_1                0.800        0.00509  1986 1986-01-01 0.0850  
#>  4 CA_1                0.800        0.00509  1987 1987-01-01 0.0912  
#>  5 CA_1                0.800        0.00509  1988 1988-01-01 0       
#>  6 CA_1                0.800        0.00509  1989 1989-01-01 0.0163  
#>  7 CA_1                0.800        0.00509  1990 1990-01-01 0.0608  
#>  8 CA_1                0.800        0.00509  1991 1991-01-01 0.0145  
#>  9 CA_1                0.800        0.00509  1992 1992-01-01 0.00619 
#> 10 CA_1                0.800        0.00509  1993 1993-01-01 0       
#> # ℹ 14,390 more rows
#> # ℹ 2 more variables: area_hist <dbl>, area_pct <dbl>

The sum_first method will sum the time series for all
pixels in each kelp segment, so that each kelp segment has a quarterly
time series. Then, the maximum for each segment within each year is
selected, so that the time series is annual.

sum_first_annual_ts <- extract_time_series(
  segmented_landsat_data = segmented_landsat_data,
  annualization_method = "sum_first"
)

sum_first_annual_ts
#> # A tibble: 14,400 × 8
#>    Segment_ID max_occupiable historical_med  year date       area_abs
#>    <chr>               <dbl>          <dbl> <dbl> <date>        <dbl>
#>  1 CA_1                0.800        0.00419  1984 1984-01-01 0.000543
#>  2 CA_1                0.800        0.00419  1985 1985-01-01 0.00300 
#>  3 CA_1                0.800        0.00419  1986 1986-01-01 0.0464  
#>  4 CA_1                0.800        0.00419  1987 1987-01-01 0.0805  
#>  5 CA_1                0.800        0.00419  1988 1988-01-01 0       
#>  6 CA_1                0.800        0.00419  1989 1989-01-01 0.0138  
#>  7 CA_1                0.800        0.00419  1990 1990-01-01 0.0476  
#>  8 CA_1                0.800        0.00419  1991 1991-01-01 0.00702 
#>  9 CA_1                0.800        0.00419  1992 1992-01-01 0.00533 
#> 10 CA_1                0.800        0.00419  1993 1993-01-01 0       
#> # ℹ 14,390 more rows
#> # ℹ 2 more variables: area_hist <dbl>, area_pct <dbl>

Each of the Q1, Q2, Q3, and
Q4 options will sum together all pixels within each segment
and extract its respective quarter within each year.

q3_annual_ts <- extract_time_series(
  segmented_landsat_data = segmented_landsat_data,
  annualization_method = "Q3"
)

q3_annual_ts
#> # A tibble: 14,400 × 9
#>    Segment_ID max_occupiable historical_med  year date       quarter area_abs
#>    <chr>               <dbl>          <dbl> <dbl> <date>     <chr>      <dbl>
#>  1 CA_1                0.800        0.00099  1984 1984-01-01 Q3       0      
#>  2 CA_1                0.800        0.00099  1985 1985-01-01 Q3       0.00140
#>  3 CA_1                0.800        0.00099  1986 1986-01-01 Q3       0.0464 
#>  4 CA_1                0.800        0.00099  1987 1987-01-01 Q3       0.0805 
#>  5 CA_1                0.800        0.00099  1988 1988-01-01 Q3       0      
#>  6 CA_1                0.800        0.00099  1989 1989-01-01 Q3       0.00319
#>  7 CA_1                0.800        0.00099  1990 1990-01-01 Q3       0.0476 
#>  8 CA_1                0.800        0.00099  1991 1991-01-01 Q3       0.00101
#>  9 CA_1                0.800        0.00099  1992 1992-01-01 Q3       0.00533
#> 10 CA_1                0.800        0.00099  1993 1993-01-01 Q3       0      
#> # ℹ 14,390 more rows
#> # ℹ 2 more variables: area_hist <dbl>, area_pct <dbl>
…
Status is calculated by dividing the given year’s kelp area by the
historical median across 1984-2013 for each kelp segment. A value of
-999 indicates that there is not enough data to determine a status for
the given kelp segment.

kelp_status_2020 <- get_kelp_status(
  annual_time_series = sum_first_annual_ts,
  kelp_presence = kelp_presence,
  status_year = 2020
)

kelp_status_2020
#> # A tibble: 360 × 3
#>    Segment_ID  year  status
#>    <chr>      <dbl>   <dbl>
#>  1 CA_1        2020   92.5 
#>  2 CA_10       2020    1.06
#>  3 CA_100      2020 -999   
#>  4 CA_101      2020 -999   
#>  5 CA_102      2020 -999   
#>  6 CA_103      2020 -999   
#>  7 CA_104      2020 -999   
#>  8 CA_105      2020 -999   
#>  9 CA_106      2020 -999   
#> 10 CA_107      2020 -999   
#> # ℹ 350 more rows
…
